SHOW autovacuum;
 autovacuum 
------------
 off
(1 row)

DROP TABLE IF EXISTS t;
DROP TABLE
CREATE TABLE t(k serial PRIMARY KEY,v integer);
CREATE TABLE
INSERT INTO t(v) 
  SELECT trunc(random() * 10)
    FROM generate_series(1,100000);
INSERT 0 100000
SELECT relname,relpages,reltuples FROM pg_class WHERE relname='t';
 relname | relpages | reltuples 
---------+----------+-----------
 t       |        0 |         0
(1 row)

VACUUM ANALYZE t;
VACUUM
SELECT relname,relpages,reltuples FROM pg_class WHERE relname='t';
 relname | relpages | reltuples 
---------+----------+-----------
 t       |      443 |    100000
(1 row)

SELECT relname,round(reltuples / relpages) AS rows_per_page FROM pg_class WHERE relname='t';
 relname | rows_per_page 
---------+---------------
 t       |           226
(1 row)

CREATE OR REPLACE VIEW table_stats AS
SELECT
  stat.relname AS relname, 
  seq_scan, seq_tup_read, idx_scan, idx_tup_fetch,
  heap_blks_read, heap_blks_hit, idx_blks_read, idx_blks_hit    
FROM
  pg_stat_user_tables stat
  RIGHT JOIN pg_statio_user_tables statio 
    ON stat.relid=statio.relid
;
CREATE VIEW
SELECT pg_sleep(10);
 pg_sleep 
----------
 
(1 row)

SELECT pg_stat_reset();
 pg_stat_reset 
---------------
 
(1 row)

SELECT pg_sleep(1);
 pg_sleep 
----------
 
(1 row)

Expanded display is on.
SELECT * FROM table_stats WHERE relname='t';
-[ RECORD 1 ]--+--
relname        | t
seq_scan       | 0
seq_tup_read   | 0
idx_scan       | 0
idx_tup_fetch  | 0
heap_blks_read | 0
heap_blks_hit  | 0
idx_blks_read  | 0
idx_blks_hit   | 0

SELECT pg_stat_reset();
-[ RECORD 1 ]-+-
pg_stat_reset | 

Expanded display is off.
EXPLAIN ANALYZE SELECT count(*) FROM t WHERE k=1000;
                                                   QUERY PLAN                                                   
----------------------------------------------------------------------------------------------------------------
 Aggregate  (cost=8.28..8.29 rows=1 width=0) (actual time=0.034..0.036 rows=1 loops=1)
   ->  Index Scan using t_pkey on t  (cost=0.00..8.28 rows=1 width=0) (actual time=0.020..0.023 rows=1 loops=1)
         Index Cond: (k = 1000)
 Total runtime: 0.104 ms
(4 rows)

SELECT pg_sleep(1);
 pg_sleep 
----------
 
(1 row)

Expanded display is on.
SELECT * FROM table_stats WHERE relname='t';
-[ RECORD 1 ]--+--
relname        | t
seq_scan       | 0
seq_tup_read   | 0
idx_scan       | 1
idx_tup_fetch  | 1
heap_blks_read | 0
heap_blks_hit  | 1
idx_blks_read  | 0
idx_blks_hit   | 3

SELECT pg_stat_reset();
-[ RECORD 1 ]-+-
pg_stat_reset | 

Expanded display is off.
EXPLAIN ANALYZE SELECT count(*) FROM t WHERE k>9000 AND v=5;
                                                QUERY PLAN                                                 
-----------------------------------------------------------------------------------------------------------
 Aggregate  (cost=1965.94..1965.95 rows=1 width=0) (actual time=94.196..94.197 rows=1 loops=1)
   ->  Seq Scan on t  (cost=0.00..1943.00 rows=9176 width=0) (actual time=3.254..78.297 rows=9097 loops=1)
         Filter: ((k > 9000) AND (v = 5))
 Total runtime: 94.266 ms
(4 rows)

SELECT pg_sleep(1);
 pg_sleep 
----------
 
(1 row)

Expanded display is on.
SELECT * FROM table_stats WHERE relname='t';
-[ RECORD 1 ]--+-------
relname        | t
seq_scan       | 1
seq_tup_read   | 100000
idx_scan       | 0
idx_tup_fetch  | 0
heap_blks_read | 0
heap_blks_hit  | 443
idx_blks_read  | 0
idx_blks_hit   | 0

SELECT pg_stat_reset();
-[ RECORD 1 ]-+-
pg_stat_reset | 

Expanded display is off.
EXPLAIN ANALYZE SELECT count(*) FROM t WHERE v=1;
                                                 QUERY PLAN                                                 
------------------------------------------------------------------------------------------------------------
 Aggregate  (cost=1717.76..1717.77 rows=1 width=0) (actual time=74.535..74.537 rows=1 loops=1)
   ->  Seq Scan on t  (cost=0.00..1693.00 rows=9903 width=0) (actual time=0.015..56.847 rows=10054 loops=1)
         Filter: (v = 1)
 Total runtime: 74.600 ms
(4 rows)

SELECT pg_sleep(1);
 pg_sleep 
----------
 
(1 row)

Expanded display is on.
SELECT * FROM table_stats WHERE relname='t';
-[ RECORD 1 ]--+-------
relname        | t
seq_scan       | 1
seq_tup_read   | 100000
idx_scan       | 0
idx_tup_fetch  | 0
heap_blks_read | 0
heap_blks_hit  | 443
idx_blks_read  | 0
idx_blks_hit   | 0

SELECT pg_stat_reset();
-[ RECORD 1 ]-+-
pg_stat_reset | 

Expanded display is off.
CREATE INDEX i ON t(v);
CREATE INDEX
SELECT relname,reltuples,relpages FROM pg_class WHERE relname='i';
 relname | reltuples | relpages 
---------+-----------+----------
 i       |    100000 |      221
(1 row)

SELECT relname,round(reltuples / relpages) AS rows_per_page FROM pg_class WHERE relname='i';
 relname | rows_per_page 
---------+---------------
 i       |           452
(1 row)

EXPLAIN ANALYZE SELECT count(*) FROM t WHERE v=1;
                                                       QUERY PLAN                                                        
-------------------------------------------------------------------------------------------------------------------------
 Aggregate  (cost=756.55..756.56 rows=1 width=0) (actual time=31.962..31.963 rows=1 loops=1)
   ->  Bitmap Heap Scan on t  (cost=165.01..731.79 rows=9903 width=0) (actual time=1.821..18.010 rows=10054 loops=1)
         Recheck Cond: (v = 1)
         ->  Bitmap Index Scan on i  (cost=0.00..162.53 rows=9903 width=0) (actual time=1.721..1.721 rows=10054 loops=1)
               Index Cond: (v = 1)
 Total runtime: 32.019 ms
(6 rows)

SELECT pg_sleep(1);
 pg_sleep 
----------
 
(1 row)

Expanded display is on.
SELECT * FROM table_stats WHERE relname='t';
-[ RECORD 1 ]--+-------
relname        | t
seq_scan       | 1
seq_tup_read   | 100000
idx_scan       | 1
idx_tup_fetch  | 10054
heap_blks_read | 0
heap_blks_hit  | 886
idx_blks_read  | 25
idx_blks_hit   | 0

SELECT pg_stat_reset();
-[ RECORD 1 ]-+-
pg_stat_reset | 

Expanded display is off.
EXPLAIN ANALYZE SELECT count(*) FROM t WHERE k>9000 AND v=5;
                                                       QUERY PLAN                                                        
-------------------------------------------------------------------------------------------------------------------------
 Aggregate  (cost=787.97..787.98 rows=1 width=0) (actual time=40.545..40.546 rows=1 loops=1)
   ->  Bitmap Heap Scan on t  (cost=170.38..765.03 rows=9176 width=0) (actual time=4.107..24.606 rows=9097 loops=1)
         Recheck Cond: (v = 5)
         Filter: (k > 9000)
         ->  Bitmap Index Scan on i  (cost=0.00..168.08 rows=10110 width=0) (actual time=3.255..3.255 rows=9993 loops=1)
               Index Cond: (v = 5)
 Total runtime: 40.638 ms
(7 rows)

SELECT pg_sleep(1);
 pg_sleep 
----------
 
(1 row)

Expanded display is on.
SELECT * FROM table_stats WHERE relname='t';
-[ RECORD 1 ]--+-----
relname        | t
seq_scan       | 0
seq_tup_read   | 0
idx_scan       | 1
idx_tup_fetch  | 9993
heap_blks_read | 0
heap_blks_hit  | 443
idx_blks_read  | 23
idx_blks_hit   | 1

SELECT pg_stat_reset();
-[ RECORD 1 ]-+-
pg_stat_reset | 

Expanded display is off.
EXPLAIN ANALYZE SELECT COUNT(*) FROM t WHERE v<1;
                                                       QUERY PLAN                                                        
-------------------------------------------------------------------------------------------------------------------------
 Aggregate  (cost=765.79..765.80 rows=1 width=0) (actual time=40.053..40.055 rows=1 loops=1)
   ->  Bitmap Heap Scan on t  (cost=170.79..740.45 rows=10133 width=0) (actual time=3.353..23.003 rows=9974 loops=1)
         Recheck Cond: (v < 1)
         ->  Bitmap Index Scan on i  (cost=0.00..168.26 rows=10133 width=0) (actual time=3.158..3.158 rows=9974 loops=1)
               Index Cond: (v < 1)
 Total runtime: 40.142 ms
(6 rows)

EXPLAIN ANALYZE SELECT COUNT(*) FROM t WHERE v<2;
                                                        QUERY PLAN                                                        
--------------------------------------------------------------------------------------------------------------------------
 Aggregate  (cost=1079.10..1079.11 rows=1 width=0) (actual time=76.670..76.672 rows=1 loops=1)
   ->  Bitmap Heap Scan on t  (cost=335.55..1029.01 rows=20037 width=0) (actual time=5.650..42.445 rows=20028 loops=1)
         Recheck Cond: (v < 2)
         ->  Bitmap Index Scan on i  (cost=0.00..330.54 rows=20037 width=0) (actual time=5.417..5.417 rows=20028 loops=1)
               Index Cond: (v < 2)
 Total runtime: 76.761 ms
(6 rows)

EXPLAIN ANALYZE SELECT COUNT(*) FROM t WHERE v<3;
                                                        QUERY PLAN                                                        
--------------------------------------------------------------------------------------------------------------------------
 Aggregate  (cost=1392.01..1392.02 rows=1 width=0) (actual time=88.524..88.526 rows=1 loops=1)
   ->  Bitmap Heap Scan on t  (cost=500.16..1317.20 rows=29923 width=0) (actual time=8.257..49.228 rows=29982 loops=1)
         Recheck Cond: (v < 3)
         ->  Bitmap Index Scan on i  (cost=0.00..492.68 rows=29923 width=0) (actual time=8.154..8.154 rows=29982 loops=1)
               Index Cond: (v < 3)
 Total runtime: 88.605 ms
(6 rows)

EXPLAIN ANALYZE SELECT COUNT(*) FROM t WHERE v<4;
                                                        QUERY PLAN                                                        
--------------------------------------------------------------------------------------------------------------------------
 Aggregate  (cost=1706.53..1706.54 rows=1 width=0) (actual time=112.030..112.031 rows=1 loops=1)
   ->  Bitmap Heap Scan on t  (cost=665.33..1606.83 rows=39880 width=0) (actual time=5.712..59.564 rows=40144 loops=1)
         Recheck Cond: (v < 4)
         ->  Bitmap Index Scan on i  (cost=0.00..655.36 rows=39880 width=0) (actual time=5.609..5.609 rows=40144 loops=1)
               Index Cond: (v < 4)
 Total runtime: 112.091 ms
(6 rows)

EXPLAIN ANALYZE SELECT COUNT(*) FROM t WHERE v<5;
                                                 QUERY PLAN                                                  
-------------------------------------------------------------------------------------------------------------
 Aggregate  (cost=1817.10..1817.11 rows=1 width=0) (actual time=149.846..149.848 rows=1 loops=1)
   ->  Seq Scan on t  (cost=0.00..1693.00 rows=49640 width=0) (actual time=0.010..82.892 rows=49989 loops=1)
         Filter: (v < 5)
 Total runtime: 149.890 ms
(4 rows)

EXPLAIN ANALYZE SELECT COUNT(*) FROM t WHERE v<6;
                                                 QUERY PLAN                                                  
-------------------------------------------------------------------------------------------------------------
 Aggregate  (cost=1842.38..1842.39 rows=1 width=0) (actual time=175.262..175.264 rows=1 loops=1)
   ->  Seq Scan on t  (cost=0.00..1693.00 rows=59750 width=0) (actual time=0.007..94.837 rows=59982 loops=1)
         Filter: (v < 6)
 Total runtime: 175.302 ms
(4 rows)

SELECT pg_sleep(1);
 pg_sleep 
----------
 
(1 row)

SELECT pg_stat_reset();
 pg_stat_reset 
---------------
 
(1 row)

EXPLAIN ANALYZE SELECT COUNT(*) FROM t WHERE v<4;
                                                         QUERY PLAN                                                         
----------------------------------------------------------------------------------------------------------------------------
 Aggregate  (cost=1706.53..1706.54 rows=1 width=0) (actual time=134.915..134.916 rows=1 loops=1)
   ->  Bitmap Heap Scan on t  (cost=665.33..1606.83 rows=39880 width=0) (actual time=10.942..73.499 rows=40144 loops=1)
         Recheck Cond: (v < 4)
         ->  Bitmap Index Scan on i  (cost=0.00..655.36 rows=39880 width=0) (actual time=10.737..10.737 rows=40144 loops=1)
               Index Cond: (v < 4)
 Total runtime: 134.999 ms
(6 rows)

SELECT pg_sleep(1);
 pg_sleep 
----------
 
(1 row)

Expanded display is on.
SELECT * FROM table_stats WHERE relname='t';
-[ RECORD 1 ]--+------
relname        | t
seq_scan       | 0
seq_tup_read   | 0
idx_scan       | 1
idx_tup_fetch  | 40144
heap_blks_read | 0
heap_blks_hit  | 443
idx_blks_read  | 0
idx_blks_hit   | 89

SELECT pg_stat_reset();
-[ RECORD 1 ]-+-
pg_stat_reset | 

Expanded display is off.
EXPLAIN ANALYZE SELECT COUNT(*) FROM t WHERE v<6;
                                                  QUERY PLAN                                                  
--------------------------------------------------------------------------------------------------------------
 Aggregate  (cost=1842.38..1842.39 rows=1 width=0) (actual time=207.981..207.983 rows=1 loops=1)
   ->  Seq Scan on t  (cost=0.00..1693.00 rows=59750 width=0) (actual time=0.015..114.560 rows=59982 loops=1)
         Filter: (v < 6)
 Total runtime: 208.040 ms
(4 rows)

SELECT pg_sleep(1);
 pg_sleep 
----------
 
(1 row)

Expanded display is on.
SELECT * FROM table_stats WHERE relname='t';
-[ RECORD 1 ]--+-------
relname        | t
seq_scan       | 1
seq_tup_read   | 100000
idx_scan       | 0
idx_tup_fetch  | 0
heap_blks_read | 0
heap_blks_hit  | 443
idx_blks_read  | 0
idx_blks_hit   | 0

SELECT pg_stat_reset();
-[ RECORD 1 ]-+-
pg_stat_reset | 

Expanded display is off.
ANALYZE t;
ANALYZE
EXPLAIN ANALYZE SELECT COUNT(*) FROM t WHERE v<1;
                                                       QUERY PLAN                                                       
------------------------------------------------------------------------------------------------------------------------
 Aggregate  (cost=755.80..755.81 rows=1 width=0) (actual time=29.286..29.287 rows=1 loops=1)
   ->  Bitmap Heap Scan on t  (cost=164.75..731.13 rows=9870 width=0) (actual time=1.501..16.249 rows=9974 loops=1)
         Recheck Cond: (v < 1)
         ->  Bitmap Index Scan on i  (cost=0.00..162.28 rows=9870 width=0) (actual time=1.388..1.388 rows=9974 loops=1)
               Index Cond: (v < 1)
 Total runtime: 29.349 ms
(6 rows)

EXPLAIN ANALYZE SELECT COUNT(*) FROM t WHERE v<2;
                                                        QUERY PLAN                                                        
--------------------------------------------------------------------------------------------------------------------------
 Aggregate  (cost=1080.24..1080.25 rows=1 width=0) (actual time=56.923..56.925 rows=1 loops=1)
   ->  Bitmap Heap Scan on t  (cost=335.93..1030.02 rows=20087 width=0) (actual time=2.815..30.731 rows=20028 loops=1)
         Recheck Cond: (v < 2)
         ->  Bitmap Index Scan on i  (cost=0.00..330.91 rows=20087 width=0) (actual time=2.715..2.715 rows=20028 loops=1)
               Index Cond: (v < 2)
 Total runtime: 56.983 ms
(6 rows)

EXPLAIN ANALYZE SELECT COUNT(*) FROM t WHERE v<3;
                                                        QUERY PLAN                                                        
--------------------------------------------------------------------------------------------------------------------------
 Aggregate  (cost=1392.56..1392.57 rows=1 width=0) (actual time=84.041..84.043 rows=1 loops=1)
   ->  Bitmap Heap Scan on t  (cost=500.35..1317.69 rows=29947 width=0) (actual time=4.139..44.768 rows=29982 loops=1)
         Recheck Cond: (v < 3)
         ->  Bitmap Index Scan on i  (cost=0.00..492.86 rows=29947 width=0) (actual time=4.036..4.036 rows=29982 loops=1)
               Index Cond: (v < 3)
 Total runtime: 84.097 ms
(6 rows)

EXPLAIN ANALYZE SELECT COUNT(*) FROM t WHERE v<4;
                                                        QUERY PLAN                                                        
--------------------------------------------------------------------------------------------------------------------------
 Aggregate  (cost=1705.85..1705.86 rows=1 width=0) (actual time=119.492..119.493 rows=1 loops=1)
   ->  Bitmap Heap Scan on t  (cost=665.10..1606.22 rows=39850 width=0) (actual time=5.484..63.512 rows=40144 loops=1)
         Recheck Cond: (v < 4)
         ->  Bitmap Index Scan on i  (cost=0.00..655.13 rows=39850 width=0) (actual time=5.380..5.380 rows=40144 loops=1)
               Index Cond: (v < 4)
 Total runtime: 119.559 ms
(6 rows)

EXPLAIN ANALYZE SELECT COUNT(*) FROM t WHERE v<5;
                                                 QUERY PLAN                                                  
-------------------------------------------------------------------------------------------------------------
 Aggregate  (cost=1817.88..1817.89 rows=1 width=0) (actual time=149.911..149.913 rows=1 loops=1)
   ->  Seq Scan on t  (cost=0.00..1693.00 rows=49953 width=0) (actual time=0.011..82.946 rows=49989 loops=1)
         Filter: (v < 5)
 Total runtime: 149.955 ms
(4 rows)

EXPLAIN ANALYZE SELECT COUNT(*) FROM t WHERE v<6;
                                                 QUERY PLAN                                                  
-------------------------------------------------------------------------------------------------------------
 Aggregate  (cost=1843.18..1843.19 rows=1 width=0) (actual time=177.026..177.028 rows=1 loops=1)
   ->  Seq Scan on t  (cost=0.00..1693.00 rows=60073 width=0) (actual time=0.009..96.091 rows=59982 loops=1)
         Filter: (v < 6)
 Total runtime: 177.068 ms
(4 rows)

SELECT pg_stat_reset();
 pg_stat_reset 
---------------
 
(1 row)

EXPLAIN ANALYZE SELECT COUNT(*) FROM t WHERE v<4;
                                                        QUERY PLAN                                                        
--------------------------------------------------------------------------------------------------------------------------
 Aggregate  (cost=1705.85..1705.86 rows=1 width=0) (actual time=111.867..111.868 rows=1 loops=1)
   ->  Bitmap Heap Scan on t  (cost=665.10..1606.22 rows=39850 width=0) (actual time=5.849..59.258 rows=40144 loops=1)
         Recheck Cond: (v < 4)
         ->  Bitmap Index Scan on i  (cost=0.00..655.13 rows=39850 width=0) (actual time=5.744..5.744 rows=40144 loops=1)
               Index Cond: (v < 4)
 Total runtime: 111.924 ms
(6 rows)

SELECT pg_sleep(1);
 pg_sleep 
----------
 
(1 row)

Expanded display is on.
SELECT * FROM table_stats WHERE relname='t';
-[ RECORD 1 ]--+-------
relname        | t
seq_scan       | 1
seq_tup_read   | 100000
idx_scan       | 1
idx_tup_fetch  | 40144
heap_blks_read | 0
heap_blks_hit  | 886
idx_blks_read  | 0
idx_blks_hit   | 89

SELECT pg_stat_reset();
-[ RECORD 1 ]-+-
pg_stat_reset | 

Expanded display is off.
EXPLAIN ANALYZE SELECT COUNT(*) FROM t WHERE v<6;
                                                  QUERY PLAN                                                  
--------------------------------------------------------------------------------------------------------------
 Aggregate  (cost=1843.18..1843.19 rows=1 width=0) (actual time=215.045..215.047 rows=1 loops=1)
   ->  Seq Scan on t  (cost=0.00..1693.00 rows=60073 width=0) (actual time=0.013..118.730 rows=59982 loops=1)
         Filter: (v < 6)
 Total runtime: 215.105 ms
(4 rows)

SELECT pg_sleep(1);
 pg_sleep 
----------
 
(1 row)

Expanded display is on.
SELECT * FROM table_stats WHERE relname='t';
-[ RECORD 1 ]--+-------
relname        | t
seq_scan       | 1
seq_tup_read   | 100000
idx_scan       | 0
idx_tup_fetch  | 0
heap_blks_read | 0
heap_blks_hit  | 443
idx_blks_read  | 0
idx_blks_hit   | 0

SELECT pg_stat_reset();
-[ RECORD 1 ]-+-
pg_stat_reset | 

Expanded display is off.
CLUSTER t USING i;
CLUSTER
ANALYZE t;
ANALYZE
SELECT pg_sleep(1);
 pg_sleep 
----------
 
(1 row)

SELECT pg_stat_reset();
 pg_stat_reset 
---------------
 
(1 row)

EXPLAIN ANALYZE SELECT COUNT(*) FROM t WHERE v<4;
                                                      QUERY PLAN                                                       
-----------------------------------------------------------------------------------------------------------------------
 Aggregate  (cost=1339.40..1339.41 rows=1 width=0) (actual time=140.149..140.151 rows=1 loops=1)
   ->  Index Scan using i on t  (cost=0.00..1239.13 rows=40107 width=0) (actual time=0.105..76.797 rows=40144 loops=1)
         Index Cond: (v < 4)
 Total runtime: 140.213 ms
(4 rows)

SELECT pg_sleep(1);
 pg_sleep 
----------
 
(1 row)

Expanded display is on.
SELECT * FROM table_stats WHERE relname='t';
-[ RECORD 1 ]--+------
relname        | t
seq_scan       | 0
seq_tup_read   | 0
idx_scan       | 1
idx_tup_fetch  | 40144
heap_blks_read | 0
heap_blks_hit  | 178
idx_blks_read  | 90
idx_blks_hit   | 0

SELECT pg_stat_reset();
-[ RECORD 1 ]-+-
pg_stat_reset | 

Expanded display is off.
EXPLAIN ANALYZE SELECT COUNT(*) FROM t WHERE v<6;
                                                  QUERY PLAN                                                  
--------------------------------------------------------------------------------------------------------------
 Aggregate  (cost=1842.53..1842.54 rows=1 width=0) (actual time=215.587..215.589 rows=1 loops=1)
   ->  Seq Scan on t  (cost=0.00..1693.00 rows=59810 width=0) (actual time=0.019..116.624 rows=59982 loops=1)
         Filter: (v < 6)
 Total runtime: 215.648 ms
(4 rows)

SELECT pg_sleep(1);
 pg_sleep 
----------
 
(1 row)

Expanded display is on.
SELECT * FROM table_stats WHERE relname='t';
-[ RECORD 1 ]--+-------
relname        | t
seq_scan       | 1
seq_tup_read   | 100000
idx_scan       | 0
idx_tup_fetch  | 0
heap_blks_read | 0
heap_blks_hit  | 443
idx_blks_read  | 0
idx_blks_hit   | 0

SELECT pg_stat_reset();
-[ RECORD 1 ]-+-
pg_stat_reset | 

Expanded display is off.
EXPLAIN (ANALYZE ON, BUFFERS ON) SELECT count(*) FROM t WHERE v=5;
                                                     QUERY PLAN                                                     
--------------------------------------------------------------------------------------------------------------------
 Aggregate  (cost=332.92..332.93 rows=1 width=0) (actual time=39.132..39.134 rows=1 loops=1)
   Buffers: shared hit=46 read=23
   ->  Index Scan using i on t  (cost=0.00..308.21 rows=9883 width=0) (actual time=0.069..21.843 rows=9993 loops=1)
         Index Cond: (v = 5)
         Buffers: shared hit=46 read=23
 Total runtime: 39.200 ms
(6 rows)

DROP INDEX i;
DROP INDEX
EXPLAIN (ANALYZE ON, BUFFERS ON) SELECT count(*) FROM t WHERE v=5;
                                                 QUERY PLAN                                                 
------------------------------------------------------------------------------------------------------------
 Aggregate  (cost=1717.71..1717.72 rows=1 width=0) (actual time=75.539..75.541 rows=1 loops=1)
   Buffers: shared hit=443
   ->  Seq Scan on t  (cost=0.00..1693.00 rows=9883 width=0) (actual time=20.987..58.050 rows=9993 loops=1)
         Filter: (v = 5)
         Buffers: shared hit=443
 Total runtime: 75.607 ms
(6 rows)

